{
    "maps": [{
        "name": "CLUBHOUSE",
        "banrate": 28
    },{
        "name": "LITTORAL",
        "banrate": 18
    },{
        "name": "LITTORAL",
        "banrate": 18
    },{
        "name": "LITTORAL",
        "banrate": 18
    },{
        "name": "LITTORAL",
        "banrate": 18
    },{
        "name": "FRONTIÈRE",
        "banrate": 18
    },{
        "name": "BANQUE",
        "banrate": 11
    },{
        "name": "BANQUE",
        "banrate": 11
    },{
        "name": "BANQUE",
        "banrate": 11
    },{
        "name": "BANQUE",
        "banrate": 11
    },{
        "name": "BANQUE",
        "banrate": 11
    },{
        "name": "BANQUE",
        "banrate": 11
    },{
        "name": "BANQUE",
        "banrate": 11
    },{
        "name": "BANQUE",
        "banrate": 11
    },{
        "name": "BANQUE",
        "banrate": 11
    },{
        "name": "BANQUE",
        "banrate": 11
    },{
        "name": "BANQUE",
        "banrate": 11
    },{
        "name": "BANQUE",
        "banrate": 11
    },{
        "name": "BANQUE",
        "banrate": 11
    },{
        "name": "BANQUE",
        "banrate": 11
    },{
        "name": "BANQUE",
        "banrate": 11
    },{
        "name": "BANQUE",
        "banrate": 11
    },{
        "name": "BANQUE",
        "banrate": 11
    },{
        "name": "BANQUE",
        "banrate": 11
    },{
        "name": "BANQUE",
        "banrate": 11
    },{
        "name": "BANQUE",
        "banrate": 11
    },{
        "name": "CAFÉ DOSTOYEVSKY",
        "banrate": 10
    }]
}
